Chapter 2 Data Management using R | Data Analyst Tutorial
…
Figure 2.8: Data Transformation with dplyr

2.8.2 across

library("dplyr")
iris %>%
    as_tibble() %>%
    mutate(across(c(Sepal.Length, Sepal.Width), round))

## # A tibble: 150 × 5
##    Sepal.Length Sepal.Width Petal.Length Petal.Width Species
##           <dbl>       <dbl>        <dbl>       <dbl> <fct>  
##  1            5           4          1.4         0.2 setosa 
##  2            5           3          1.4         0.2 setosa 
##  3            5           3          1.3         0.2 setosa 
##  4            5           3          1.5         0.2 setosa 
##  5            5           4          1.4         0.2 setosa 
##  6            5           4          1.7         0.4 setosa 
##  7            5           3          1.4         0.3 setosa 
##  8            5           3          1.5         0.2 setosa 
##  9            4           3          1.4         0.2 setosa 
## 10            5           3          1.5         0.1 setosa 
## # ℹ 140 more rows

2.8.3 arrange

## Missing values are always sorted at the end:
data("flights",package="nycflights13")
arrange(flights, year, month, day)

## # A tibble: 336,776 × 19
##     year month   day dep_time sched_dep_time dep_delay arr_time sched_arr_time
##    <int> <int> <int>    <int>          <int>     <dbl>    <int>          <int>
##  1  2013     1     1      517            515         2      830            819
##  2  2013     1     1      533            529         4      850            830
##  3  2013     1     1      542            540         2      923            850
##  4  2013     1     1      544            545        -1     1004           1022
##  5  2013     1     1      554            600        -6      812            837
##  6  2013     1     1      554            558        -4      740            728
##  7  2013     1     1      555            600        -5      913            854
##  8  2013     1     1      557            600        -3      709            723
##  9  2013     1     1      557            600        -3      838            846
## 10  2013     1     1      558            600        -2      753            745
## # ℹ 336,766 more rows
## # ℹ 11 more variables: arr_delay <dbl>, carrier <chr>, flight <int>,
## #   tailnum <chr>, origin <chr>, dest <chr>, air_time <dbl>, distance <dbl>,
## #   hour <dbl>, minute <dbl>, time_hour <dttm>

## in descending order:
arrange(flights, desc(dep_delay))

## # A tibble: 336,776 × 19
##     year month   day dep_time sched_dep_time dep_delay arr_time sched_arr_time
##    <int> <int> <int>    <int>          <int>     <dbl>    <int>          <int>
##  1  2013     1     9      641            900      1301     1242           1530
##  2  2013     6    15     1432           1935      1137     1607           2120
##  3  2013     1    10     1121           1635      1126     1239           1810
##  4  2013     9    20     1139           1845      1014     1457           2210
##  5  2013     7    22      845           1600      1005     1044           1815
##  6  2013     4    10     1100           1900       960     1342           2211
##  7  2013     3    17     2321            810       911      135           1020
##  8  2013     6    27      959           1900       899     1236           2226
##  9  2013     7    22     2257            759       898      121           1026
## 10  2013    12     5      756           1700       896     1058           2020
## # ℹ 336,766 more rows
## # ℹ 11 more variables: arr_delay <dbl>, carrier <chr>, flight <int>,
## #   tailnum <chr>, origin <chr>, dest <chr>, air_time <dbl>, distance <dbl>,
## #   hour <dbl>, minute <dbl>, time_hour <dttm>

## group_by
by_cyl <- mtcars %>% group_by(cyl)    
## 无视之前的分组            
by_cyl %>% arrange(desc(wt))    

## # A tibble: 32 × 11
## # Groups:   cyl [3]
##      mpg   cyl  disp    hp  drat    wt  qsec    vs    am  gear  carb
##    <dbl> <dbl> <dbl> <dbl> <dbl> <dbl> <dbl> <dbl> <dbl> <dbl> <dbl>
##  1  10.4     8  460    215  3     5.42  17.8     0     0     3     4
##  2  14.7     8  440    230  3.23  5.34  17.4     0     0     3     4
##  3  10.4     8  472    205  2.93  5.25  18.0     0     0     3     4
##  4  16.4     8  276.   180  3.07  4.07  17.4     0     0     3     3
##  5  19.2     8  400    175  3.08  3.84  17.0     0     0     3     2
##  6  13.3     8  350    245  3.73  3.84  15.4     0     0     3     4
##  7  15.2     8  276.   180  3.07  3.78  18       0     0     3     3
##  8  17.3     8  276.   180  3.07  3.73  17.6     0     0     3     3
##  9  14.3     8  360    245  3.21  3.57  15.8     0     0     3     4
## 10  15       8  301    335  3.54  3.57  14.6     0     1     5     8
## # ℹ 22 more rows

## 在之前的分组内再排序    
by_cyl %>% arrange(desc(wt), .by_group = TRUE) 

## # A tibble: 32 × 11
## # Groups:   cyl [3]
##      mpg   cyl  disp    hp  drat    wt  qsec    vs    am  gear  carb
##    <dbl> <dbl> <dbl> <dbl> <dbl> <dbl> <dbl> <dbl> <dbl> <dbl> <dbl>
##  1  24.4     4 147.     62  3.69  3.19  20       1     0     4     2
##  2  22.8     4 141.     95  3.92  3.15  22.9     1     0     4     2
##  3  21.4     4 121     109  4.11  2.78  18.6     1     1     4     2
##  4  21.5     4 120.     97  3.7   2.46  20.0     1     0     3     1
##  5  22.8     4 108      93  3.85  2.32  18.6     1     1     4     1
##  6  32.4     4  78.7    66  4.08  2.2   19.5     1     1     4     1
##  7  26       4 120.     91  4.43  2.14  16.7     0     1     5     2
##  8  27.3     4  79      66  4.08  1.94  18.9     1     1     4     1
##  9  33.9     4  71.1    65  4.22  1.84  19.9     1     1     4     1
## 10  30.4     4  75.7    52  4.93  1.62  18.5     1     1     4     2
## # ℹ 22 more rows
…
# Supply lists by with dynamic dots
vecs <- list(
  c(1, 2, NA, NA, 5),
  c(NA, NA, 3, 4, 5)
)
coalesce(!!!vecs)

## [1] 1 2 3 4 5

2.8.5 filter

data("flights",package="nycflights13")
filter(flights, month == 1, day == 1)

## # A tibble: 842 × 19
##     year month   day dep_time sched_dep_time dep_delay arr_time sched_arr_time
##    <int> <int> <int>    <int>          <int>     <dbl>    <int>          <int>
##  1  2013     1     1      517            515         2      830            819
##  2  2013     1     1      533            529         4      850            830
##  3  2013     1     1      542            540         2      923            850
##  4  2013     1     1      544            545        -1     1004           1022
##  5  2013     1     1      554            600        -6      812            837
##  6  2013     1     1      554            558        -4      740            728
##  7  2013     1     1      555            600        -5      913            854
##  8  2013     1     1      557            600        -3      709            723
##  9  2013     1     1      557            600        -3      838            846
## 10  2013     1     1      558            600        -2      753            745
## # ℹ 832 more rows
## # ℹ 11 more variables: arr_delay <dbl>, carrier <chr>, flight <int>,
## #   tailnum <chr>, origin <chr>, dest <chr>, air_time <dbl>, distance <dbl>,
## #   hour <dbl>, minute <dbl>, time_hour <dttm>

filter(flights, month == 11 | month == 12)

## # A tibble: 55,403 × 19
##     year month   day dep_time sched_dep_time dep_delay arr_time sched_arr_time
##    <int> <int> <int>    <int>          <int>     <dbl>    <int>          <int>
##  1  2013    11     1        5           2359         6      352            345
##  2  2013    11     1       35           2250       105      123           2356
##  3  2013    11     1      455            500        -5      641            651
##  4  2013    11     1      539            545        -6      856            827
##  5  2013    11     1      542            545        -3      831            855
##  6  2013    11     1      549            600       -11      912            923
##  7  2013    11     1      550            600       -10      705            659
##  8  2013    11     1      554            600        -6      659            701
##  9  2013    11     1      554            600        -6      826            827
## 10  2013    11     1      554            600        -6      749            751
## # ℹ 55,393 more rows
## # ℹ 11 more variables: arr_delay <dbl>, carrier <chr>, flight <int>,
## #   tailnum <chr>, origin <chr>, dest <chr>, air_time <dbl>, distance <dbl>,
## #   hour <dbl>, minute <dbl>, time_hour <dttm>

filter(flights, month %in% c(11, 12))    

## # A tibble: 55,403 × 19
##     year month   day dep_time sched_dep_time dep_delay arr_time sched_arr_time
##    <int> <int> <int>    <int>          <int>     <dbl>    <int>          <int>
##  1  2013    11     1        5           2359         6      352            345
##  2  2013    11     1       35           2250       105      123           2356
##  3  2013    11     1      455            500        -5      641            651
##  4  2013    11     1      539            545        -6      856            827
##  5  2013    11     1      542            545        -3      831            855
##  6  2013    11     1      549            600       -11      912            923
##  7  2013    11     1      550            600       -10      705            659
##  8  2013    11     1      554            600        -6      659            701
##  9  2013    11     1      554            600        -6      826            827
## 10  2013    11     1      554            600        -6      749            751
## # ℹ 55,393 more rows
## # ℹ 11 more variables: arr_delay <dbl>, carrier <chr>, flight <int>,
## #   tailnum <chr>, origin <chr>, dest <chr>, air_time <dbl>, distance <dbl>,
## #   hour <dbl>, minute <dbl>, time_hour <dttm>
…
## mutate()
flights_sml <- select(flights, 
  year:day, 
  ends_with("delay"), 
  distance, 
  air_time
) 

2.8.9 select

data("flights",package="nycflights13")
select(flights, year, month, day)

## # A tibble: 336,776 × 3
##     year month   day
##    <int> <int> <int>
##  1  2013     1     1
##  2  2013     1     1
##  3  2013     1     1
##  4  2013     1     1
##  5  2013     1     1
##  6  2013     1     1
##  7  2013     1     1
##  8  2013     1     1
##  9  2013     1     1
## 10  2013     1     1
## # ℹ 336,766 more rows

select(flights, year:day)

## # A tibble: 336,776 × 3
##     year month   day
##    <int> <int> <int>
##  1  2013     1     1
##  2  2013     1     1
##  3  2013     1     1
##  4  2013     1     1
##  5  2013     1     1
##  6  2013     1     1
##  7  2013     1     1
##  8  2013     1     1
##  9  2013     1     1
## 10  2013     1     1
## # ℹ 336,766 more rows

select(flights, -(year:day))

## # A tibble: 336,776 × 16
##    dep_time sched_dep_time dep_delay arr_time sched_arr_time arr_delay carrier
##       <int>          <int>     <dbl>    <int>          <int>     <dbl> <chr>  
##  1      517            515         2      830            819        11 UA     
##  2      533            529         4      850            830        20 UA     
##  3      542            540         2      923            850        33 AA     
##  4      544            545        -1     1004           1022       -18 B6     
##  5      554            600        -6      812            837       -25 DL     
##  6      554            558        -4      740            728        12 UA     
##  7      555            600        -5      913            854        19 B6     
##  8      557            600        -3      709            723       -14 EV     
##  9      557            600        -3      838            846        -8 B6     
## 10      558            600        -2      753            745         8 AA     
## # ℹ 336,766 more rows
## # ℹ 9 more variables: flight <int>, tailnum <chr>, origin <chr>, dest <chr>,
## #   air_time <dbl>, distance <dbl>, hour <dbl>, minute <dbl>, time_hour <dttm>
…
    ## 将几个变量移到数据框的开头
select(flights, time_hour, air_time, everything())

## # A tibble: 336,776 × 19
##    time_hour           air_time  year month   day dep_time sched_dep_time
##    <dttm>                 <dbl> <int> <int> <int>    <int>          <int>
##  1 2013-01-01 05:00:00      227  2013     1     1      517            515
##  2 2013-01-01 05:00:00      227  2013     1     1      533            529
##  3 2013-01-01 05:00:00      160  2013     1     1      542            540
##  4 2013-01-01 05:00:00      183  2013     1     1      544            545
##  5 2013-01-01 06:00:00      116  2013     1     1      554            600
##  6 2013-01-01 05:00:00      150  2013     1     1      554            558
##  7 2013-01-01 06:00:00      158  2013     1     1      555            600
##  8 2013-01-01 06:00:00       53  2013     1     1      557            600
##  9 2013-01-01 06:00:00      140  2013     1     1      557            600
## 10 2013-01-01 06:00:00      138  2013     1     1      558            600
## # ℹ 336,766 more rows
## # ℹ 12 more variables: dep_delay <dbl>, arr_time <int>, sched_arr_time <int>,
## #   arr_delay <dbl>, carrier <chr>, flight <int>, tailnum <chr>, origin <chr>,
## #   dest <chr>, distance <dbl>, hour <dbl>, minute <dbl>

    ## rename
rename(flights, tail_num = tailnum)

## # A tibble: 336,776 × 19
##     year month   day dep_time sched_dep_time dep_delay arr_time sched_arr_time
##    <int> <int> <int>    <int>          <int>     <dbl>    <int>          <int>
##  1  2013     1     1      517            515         2      830            819
##  2  2013     1     1      533            529         4      850            830
##  3  2013     1     1      542            540         2      923            850
##  4  2013     1     1      544            545        -1     1004           1022
##  5  2013     1     1      554            600        -6      812            837
##  6  2013     1     1      554            558        -4      740            728
##  7  2013     1     1      555            600        -5      913            854
##  8  2013     1     1      557            600        -3      709            723
##  9  2013     1     1      557            600        -3      838            846
## 10  2013     1     1      558            600        -2      753            745
## # ℹ 336,766 more rows
## # ℹ 11 more variables: arr_delay <dbl>, carrier <chr>, flight <int>,
## #   tail_num <chr>, origin <chr>, dest <chr>, air_time <dbl>, distance <dbl>,
## #   hour <dbl>, minute <dbl>, time_hour <dttm>

2.8.10 summarise

## with group_by
by_day <- group_by(flights, year, month, day)
summarise(by_day, delay = mean(dep_delay, na.rm = TRUE))

## # A tibble: 365 × 4
## # Groups:   year, month [12]
##     year month   day delay
##    <int> <int> <int> <dbl>
##  1  2013     1     1 11.5 
##  2  2013     1     2 13.9 
##  3  2013     1     3 11.0 
##  4  2013     1     4  8.95
##  5  2013     1     5  5.73
##  6  2013     1     6  7.15
##  7  2013     1     7  5.42
##  8  2013     1     8  2.55
##  9  2013     1     9  2.28
## 10  2013     1    10  2.84
## # ℹ 355 more rows

## pipe, %>%:
delays <- flights %>% 
  group_by(dest) %>% 
  summarise(
    count = n(),
    dist = mean(distance, na.rm = TRUE),
    delay = mean(arr_delay, na.rm = TRUE)
  ) %>% 
  filter(count > 20, dest != "HNL")
delays

## # A tibble: 96 × 4
##    dest  count  dist delay
##    <chr> <int> <dbl> <dbl>
##  1 ABQ     254 1826   4.38
##  2 ACK     265  199   4.85
##  3 ALB     439  143  14.4 
##  4 ATL   17215  757. 11.3 
##  5 AUS    2439 1514.  6.02
##  6 AVL     275  584.  8.00
##  7 BDL     443  116   7.05
##  8 BGR     375  378   8.03
##  9 BHM     297  866. 16.9 
## 10 BNA    6333  758. 11.8 
## # ℹ 86 more rows
…
